<?xml version="1.0" encoding="UTF-8" standalone="no"?>
<!-- Created with Inkscape (http://www.inkscape.org/) -->

<svg
   xmlns:dc="http://purl.org/dc/elements/1.1/"
   xmlns:cc="http://creativecommons.org/ns#"
   xmlns:rdf="http://www.w3.org/1999/02/22-rdf-syntax-ns#"
   xmlns:svg="http://www.w3.org/2000/svg"
   xmlns="http://www.w3.org/2000/svg"
   xmlns:sodipodi="http://sodipodi.sourceforge.net/DTD/sodipodi-0.dtd"
   xmlns:inkscape="http://www.inkscape.org/namespaces/inkscape"
   width="174.55054mm"
   height="108.36556mm"
   viewBox="0 0 174.55054 108.36556"
   version="1.1"
   id="svg25137"
   inkscape:version="0.92.4 5da689c313, 2019-01-14"
   sodipodi:docname="comp_domains.svg">
  <defs
     id="defs25131">
    <marker
       inkscape:isstock="true"
       style="overflow:visible"
       id="Arrow2Lend"
       refX="0"
       refY="0"
       orient="auto"
       inkscape:stockid="Arrow2Lend">
      <path
         transform="matrix(-1.1,0,0,-1.1,-1.1,0)"
         d="M 8.7185878,4.0337352 -2.2072895,0.01601326 8.7185884,-4.0017078 c -1.7454984,2.3720609 -1.7354408,5.6174519 -6e-7,8.035443 z"
         style="fill:#000000;fill-opacity:1;fill-rule:evenodd;stroke:#000000;stroke-width:0.625;stroke-linejoin:round;stroke-opacity:1"
         id="path1006"
         inkscape:connector-curvature="0" />
    </marker>
    <marker
       inkscape:isstock="true"
       style="overflow:visible"
       id="Arrow1Lend"
       refX="0"
       refY="0"
       orient="auto"
       inkscape:stockid="Arrow1Lend">
      <path
         transform="matrix(-0.8,0,0,-0.8,-10,0)"
         style="fill:#000000;fill-opacity:1;fill-rule:evenodd;stroke:#000000;stroke-width:1.00000003pt;stroke-opacity:1"
         d="M 0,0 5,-5 -12.5,0 5,5 Z"
         id="path988"
         inkscape:connector-curvature="0" />
    </marker>
  </defs>
  <sodipodi:namedview
     id="base"
     pagecolor="#ffffff"
     bordercolor="#666666"
     borderopacity="1.0"
     inkscape:pageopacity="0.0"
     inkscape:pageshadow="2"
     inkscape:zoom="0.7"
     inkscape:cx="184.66031"
     inkscape:cy="98.084786"
     inkscape:document-units="mm"
     inkscape:current-layer="layer1"
     showgrid="false"
     inkscape:window-width="1920"
     inkscape:window-height="1006"
     inkscape:window-x="0"
     inkscape:window-y="0"
     inkscape:window-maximized="1"
     fit-margin-top="0"
     fit-margin-left="0"
     fit-margin-right="0"
     fit-margin-bottom="0" />
  <metadata
     id="metadata25134">
    <rdf:RDF>
      <cc:Work
         rdf:about="">
        <dc:format>image/svg+xml</dc:format>
        <dc:type
           rdf:resource="http://purl.org/dc/dcmitype/StillImage" />
        <dc:title></dc:title>
      </cc:Work>
    </rdf:RDF>
  </metadata>
  <g
     inkscape:label="Layer 1"
     inkscape:groupmode="layer"
     id="layer1"
     transform="translate(-15.912197,-53.829122)">
    <g
       id="g845"
       transform="translate(12.676931,50.648914)"
       style="fill:#000000;fill-opacity:0.50196078">
      <path
         inkscape:connector-curvature="0"
         id="path815"
         d="M 8.315476,111.03571 C 31.380139,97.719323 32.883927,70.214285 32.883927,70.214285 c 0,0 2.267858,-13.607142 -12.095237,-25.702381 C 6.4255951,32.416665 15.119047,29.01488 15.119047,29.01488 c 0,0 0.755953,-7.559523 -3.023809,-6.047618 C 8.315476,24.479166 3.4017857,3.3124997 3.4017857,3.3124997 H 22.678571 c 0,0 1.133929,6.047619 0.755953,12.0952383 -0.377977,6.047619 -4.913691,6.047619 -4.535715,9.449404 0.377977,3.401786 6.047619,3.023811 10.583333,9.071429 4.535715,6.047618 11.339285,12.095239 12.473215,17.764881 1.133927,5.669643 1.511903,16.252976 5.669642,16.252976 4.15774,0 13.985119,-5.291667 14.363094,-10.583333 0.377979,-5.291667 -0.377975,-13.229167 -3.401785,-17.764882 -3.023809,-4.535715 -14.741069,-8.315475 -17.764881,-7.9375 -3.023809,0.377976 -8.315476,-0.755951 -8.315476,-3.77976 0,-3.023811 0.755954,-6.04762 4.913691,-6.04762 4.157739,0 18.520833,9.82738 20.788691,7.559523 2.267857,-2.267858 0,-13.229166 -5.291667,-18.142856 -5.291667,-4.9136907 -15.875,-7.559524 -15.875,-7.559524 h 20.032739 c 0,0 10.961309,9.071428 12.095237,15.119047 1.13393,6.047619 1.13393,17.008929 4.535715,12.473215 3.401785,-4.535715 6.047618,-10.205357 4.91369,-14.363095 -1.13393,-4.157739 -8.693454,-12.0952385 -4.157739,-12.8511909 4.535715,-0.7559524 7.181548,10.9613099 10.205358,11.3392859 3.023809,0.377976 3.401785,-6.8035717 5.669642,-6.4255954 2.267858,0.3779761 -4.157737,12.0952384 -2.645833,12.8511904 1.511906,0.755952 4.913691,2.645833 9.449405,-0.755952 4.53571,-3.401786 -4.157739,-9.071429 1.133928,-10.96131 5.291662,-1.8898808 3.779762,5.669643 9.449402,7.559524 5.66965,1.889881 8.31548,-9.4494048 14.74107,-6.047619 6.4256,3.401786 -28.726187,19.276786 -24.568448,21.166667 4.157738,1.889879 22.678568,-9.071429 24.568448,-4.91369 1.88989,4.157736 -10.96131,4.91369 -10.58333,7.937499 0.37798,3.02381 18.14286,-1.13393 17.00893,3.02381 -1.13393,4.157736 -33.639881,1.511903 -40.443454,9.071427 -6.80357,7.559524 -5.669642,15.119048 2.645834,15.119048 8.315478,0 13.98512,-1.511906 17.38691,-4.913691 3.40178,-3.401785 3.0238,-10.583333 5.29166,-10.583333 2.26786,0 1.51191,9.827382 4.91369,9.449406 3.40179,-0.377976 7.18155,-2.267858 7.55953,-4.913691 0.37797,-2.645833 -6.80358,-6.803572 -3.40179,-7.9375 3.40179,-1.13393 6.04762,9.449403 10.20536,9.071428 4.15774,-0.377976 15.49702,-16.630952 20.41071,-10.961309 4.91369,5.669642 -11.33928,12.473214 -10.96131,15.119048 0.37798,2.645833 11.71726,-0.755952 11.71726,3.023809 0,3.779761 7.9375,4.535715 7.9375,2.267857 0,-2.267857 15.11905,-1.889881 15.11905,-1.889881 l 0.37798,12.473214 c 0,0 -15.875,-2.267857 -15.875,-5.291666 0,-3.023809 -27.97024,-4.157739 -35.90774,-0.755952 -7.9375,3.401785 -69.547619,23.056546 -55.940477,32.883924 13.607145,9.82738 40.443457,11.33929 40.443457,11.33929"
         style="fill:#000000;fill-opacity:0.50196078;stroke:#000000;stroke-width:0.26458332px;stroke-linecap:butt;stroke-linejoin:miter;stroke-opacity:1" />
      <path
         inkscape:connector-curvature="0"
         id="path817"
         d="m 82.452648,4.2062324 h 22.985182 c 0,0 -8.819896,4.9444861 -15.100731,4.6772165 C 84.056266,8.6161795 82.452648,4.2062324 82.452648,4.2062324 Z"
         style="fill:#000000;fill-opacity:0.50196078;stroke:#000000;stroke-width:0.26458332px;stroke-linecap:butt;stroke-linejoin:miter;stroke-opacity:1" />
    </g>
    <g
       id="g25873"
       transform="translate(-21.166667,55.184524)">
      <g
         word-spacing="normal"
         letter-spacing="normal"
         font-size-adjust="none"
         font-stretch="normal"
         font-weight="normal"
         font-variant="normal"
         font-style="normal"
         stroke-miterlimit="10.433"
         xml:space="preserve"
         transform="matrix(0.3,0,0,-0.3,-52.5,222.75)"
         id="content"
         style="font-style:normal;font-variant:normal;font-weight:normal;font-stretch:normal;letter-spacing:normal;word-spacing:normal;text-anchor:start;fill:none;fill-opacity:1;fill-rule:evenodd;stroke:#000000;stroke-linecap:butt;stroke-linejoin:miter;stroke-miterlimit:10.43299961;stroke-dasharray:none;stroke-dashoffset:0;stroke-opacity:1"><polygon
           id="polygon25868"
           points="464.48,446.64 482.46,446.64 482.46,448.19 464.48,448.19 "
           style="fill:#000000;stroke-width:0" /><path
           id="path25870"
           d="M 489.25,414.28 H 488 c -0.25,-1.3 -0.45,-2.46 -0.89,-3.64 -0.25,-0.8 -0.4,-1.21 -3.29,-1.21 h -3.99 c 0.64,2.8 2.19,5.19 4.44,8.47 2.34,3.55 4.37,6.99 4.37,10.92 0,6.93 -6.71,12.5 -15.14,12.5 -8.56,0 -15.18,-5.68 -15.18,-12.5 0,-3.93 2.03,-7.37 4.37,-10.92 2.19,-3.28 3.78,-5.67 4.44,-8.47 h -3.99 c -2.89,0 -3.04,0.41 -3.29,1.16 -0.39,1.14 -0.64,2.44 -0.89,3.69 h -1.25 l 1.65,-8.08 h 7.97 c 1.1,0 1.24,0 1.24,1.05 0,3.48 -1.53,7.87 -2.69,11.06 -1.05,2.89 -2.44,6.83 -2.44,10.56 0,7.97 5.49,11.36 10.02,11.36 4.78,0 10.06,-3.59 10.06,-11.36 0,-3.73 -1.34,-7.53 -2.8,-11.61 -0.73,-2.09 -2.33,-6.58 -2.33,-10.01 0,-1.05 0.15,-1.05 1.29,-1.05 h 7.92 z"
           inkscape:connector-curvature="0"
           style="fill:#000000;stroke-width:0" /></g>    </g>
    <g
       id="g25901"
       transform="translate(74.083333,54.806548)">
      <g
         word-spacing="normal"
         letter-spacing="normal"
         font-size-adjust="none"
         font-stretch="normal"
         font-weight="normal"
         font-variant="normal"
         font-style="normal"
         stroke-miterlimit="10.433"
         xml:space="preserve"
         transform="matrix(0.3,0,0,-0.3,-52.5,222.75)"
         id="g25899"
         style="font-style:normal;font-variant:normal;font-weight:normal;font-stretch:normal;letter-spacing:normal;word-spacing:normal;text-anchor:start;fill:none;fill-opacity:1;fill-rule:evenodd;stroke:#000000;stroke-linecap:butt;stroke-linejoin:miter;stroke-miterlimit:10.43299961;stroke-dasharray:none;stroke-dashoffset:0;stroke-opacity:1"><path
           id="path25895"
           d="M 489.25,414.28 H 488 c -0.25,-1.3 -0.45,-2.46 -0.89,-3.64 -0.25,-0.8 -0.4,-1.21 -3.29,-1.21 h -3.99 c 0.64,2.8 2.19,5.19 4.44,8.47 2.34,3.55 4.37,6.99 4.37,10.92 0,6.93 -6.71,12.5 -15.14,12.5 -8.56,0 -15.18,-5.68 -15.18,-12.5 0,-3.93 2.03,-7.37 4.37,-10.92 2.19,-3.28 3.78,-5.67 4.44,-8.47 h -3.99 c -2.89,0 -3.04,0.41 -3.29,1.16 -0.39,1.14 -0.64,2.44 -0.89,3.69 h -1.25 l 1.65,-8.08 h 7.97 c 1.1,0 1.24,0 1.24,1.05 0,3.48 -1.53,7.87 -2.69,11.06 -1.05,2.89 -2.44,6.83 -2.44,10.56 0,7.97 5.49,11.36 10.02,11.36 4.78,0 10.06,-3.59 10.06,-11.36 0,-3.73 -1.34,-7.53 -2.8,-11.61 -0.73,-2.09 -2.33,-6.58 -2.33,-10.01 0,-1.05 0.15,-1.05 1.29,-1.05 h 7.92 z"
           inkscape:connector-curvature="0"
           style="fill:#000000;stroke-width:0" /><path
           id="path25897"
           d="m 502.77,432.87 0.26,0.12 0.26,0.11 0.24,0.11 0.24,0.1 0.23,0.1 0.22,0.1 0.21,0.09 0.21,0.09 0.2,0.08 0.19,0.08 0.18,0.08 0.18,0.07 0.17,0.08 0.16,0.06 0.16,0.07 0.15,0.06 0.14,0.06 0.14,0.06 0.14,0.06 0.12,0.05 0.13,0.06 0.12,0.05 0.11,0.05 0.11,0.04 0.11,0.05 0.1,0.04 0.19,0.09 0.18,0.08 0.17,0.08 c 0.67,0.27 0.98,0.41 0.98,1.08 0,0.59 -0.45,1.11 -1.08,1.11 -0.25,0 -0.31,0 -0.73,-0.31 l -4.74,-3.17 0.52,5.15 c 0.08,0.63 0,1.5 -1.05,1.5 -0.42,0 -1.08,-0.28 -1.08,-1.04 0,-0.32 0.14,-1.36 0.18,-1.71 0.07,-0.59 0.31,-3.11 0.39,-3.9 l -4.71,3.17 c -0.36,0.2 -0.45,0.31 -0.76,0.31 -0.64,0 -1.1,-0.52 -1.1,-1.11 0,-0.7 0.43,-0.87 0.74,-1.01 l 5.26,-2.19 c -2.86,-1.27 -4.14,-1.75 -5.01,-2.17 -0.66,-0.29 -0.99,-0.43 -0.99,-1.08 0,-0.6 0.46,-1.11 1.1,-1.11 0.23,0 0.31,0 0.72,0.31 l 4.75,3.17 -0.57,-5.61 c 0,-0.76 0.66,-1.04 1.08,-1.04 0.42,0 1.08,0.28 1.08,1.04 0,0.32 -0.14,1.36 -0.17,1.71 -0.06,0.59 -0.31,3.09 -0.38,3.9 l 4.17,-2.79 c 0.91,-0.69 0.99,-0.69 1.3,-0.69 0.63,0 1.08,0.51 1.08,1.11 0,0.7 -0.42,0.87 -0.73,1.01 z"
           inkscape:connector-curvature="0"
           style="fill:#000000;stroke-width:0" /></g>    </g>
  </g>
</svg>
