<?xml version="1.0" encoding="UTF-8" standalone="no"?>
<svg
   xmlns:dc="http://purl.org/dc/elements/1.1/"
   xmlns:cc="http://creativecommons.org/ns#"
   xmlns:rdf="http://www.w3.org/1999/02/22-rdf-syntax-ns#"
   xmlns:svg="http://www.w3.org/2000/svg"
   xmlns="http://www.w3.org/2000/svg"
   xmlns:sodipodi="http://sodipodi.sourceforge.net/DTD/sodipodi-0.dtd"
   xmlns:inkscape="http://www.inkscape.org/namespaces/inkscape"
   width="65.923241"
   height="83.496193"
   version="1.1"
   id="svg11"
   sodipodi:docname="seg.svg"
   inkscape:version="0.92.4 5da689c313, 2019-01-14">
  <defs
     id="defs15" />
  <sodipodi:namedview
     pagecolor="#ffffff"
     bordercolor="#666666"
     borderopacity="1"
     objecttolerance="10"
     gridtolerance="10"
     guidetolerance="10"
     inkscape:pageopacity="0"
     inkscape:pageshadow="2"
     inkscape:window-width="1920"
     inkscape:window-height="1006"
     id="namedview13"
     showgrid="false"
     fit-margin-top="0"
     fit-margin-left="0"
     fit-margin-right="0"
     fit-margin-bottom="0"
     inkscape:zoom="0.8875"
     inkscape:cx="333.63786"
     inkscape:cy="56.964101"
     inkscape:window-x="0"
     inkscape:window-y="0"
     inkscape:window-maximized="1"
     inkscape:current-layer="svg11" />
  <title
     id="title2">film strip</title>
  <metadata
     id="metadata7">image/svg+xml<rdf:RDF>
  <cc:Work
     rdf:about="">
    <dc:format>image/svg+xml</dc:format>
    <dc:type
       rdf:resource="http://purl.org/dc/dcmitype/StillImage" />
    <dc:title>film strip</dc:title>
  </cc:Work>
</rdf:RDF>
</metadata>
  <path
     style="fill:none;stroke:#000000;stroke-width:1px;stroke-linecap:butt;stroke-linejoin:miter;stroke-opacity:1"
     d="m 21.33875,0.25 c 4.704769,8.148899 13.211568,17.485196 19.049458,19.049453 5.83788,1.564257 19.44867,-10.193858 22.18011,0 2.73143,10.193858 -26.89357,7.338229 -23.34772,13.479812 3.54584,6.141584 29.4268,-6.356138 25.86655,6.930924 -3.56026,13.28706 -20.71524,0 -29.49822,0 -8.782974,0 -0.54514,10.62805 7.35886,12.74592 7.90401,2.11787 17.83108,5.39734 10.47362,18.14084 -7.35746,12.74349 -28.878181,14.1362 -40.817598,10.93704 -11.93941656,-3.19916 -16.0982326,-14.02964 -7.6705376,-28.62684 0,0 20.9849026,-25.156291 11.2558686,-42.007473"
     id="path844"
     inkscape:connector-curvature="0" />
  <path
     style="opacity:1;fill:#000000;fill-opacity:1;stroke:none;stroke-width:11.33858299;stroke-linecap:butt;stroke-linejoin:round;stroke-miterlimit:4;stroke-dasharray:none;stroke-dashoffset:0;stroke-opacity:1"
     id="path846"
     d="m 24.249411,7.177171 c 0.213735,0.922872 0.342148,1.861363 0.436539,2.802986 0.08005,0.20278 0.0099,0.581598 0.196338,0.747616 0.0023,0.002 0.203611,-0.161419 0.222591,-0.171154 0.473705,-4.11e-4 0.849469,0.160259 1.245158,0.409174 0.656131,0.521281 1.010781,1.253991 1.259481,2.034218 0.1811,0.305302 0.24418,0.745383 0.48062,1.017892 0.33127,0.01669 0.66297,0.02442 0.99469,0.02767 0.56448,0.103894 0.93267,0.586856 1.30764,0.983186 0.38635,0.589246 0.92807,0.922704 1.53578,1.24306 0.81581,0.447953 1.71984,0.692057 2.57494,1.045326 0.69828,0.346935 0.87797,1.007409 0.9166,1.73272 -0.026,0.383797 -0.10781,0.760715 -0.20269,1.132533 -0.0216,0.08465 -0.0516,0.492312 -0.15342,0.331375 1.5e-4,-0.05478 -0.0357,-0.12314 4.5e-4,-0.164336 0.0372,-0.04244 0.11252,-0.01278 0.16716,-0.02691 0.30703,-0.07943 0.51432,-0.140725 0.79138,0.05258 0.17365,0.294305 0.14318,0.43955 -0.0369,0.699027 0,0 -3.88062,1.585659 -3.88062,1.585659 v 0 c 0.19447,-0.09545 0.26304,-0.156529 0.41032,0.04272 -0.22579,0.07048 -0.69029,0.157543 -0.90592,0.04125 -0.0975,-0.05262 -0.16581,-0.147134 -0.24872,-0.2207 -0.0259,-0.06791 -0.0787,-0.131043 -0.0778,-0.203729 5.9e-4,-0.04738 0.0609,-0.07372 0.0818,-0.116286 0.19172,-0.391876 0.24795,-0.838367 0.34569,-1.25783 0.0228,-0.581015 -0.0868,-1.070334 -0.66458,-1.314634 -0.86932,-0.346992 -1.75979,-0.649673 -2.59096,-1.085572 -0.64182,-0.342978 -1.2001,-0.736376 -1.621545,-1.343309 -0.328216,-0.331481 -0.632006,-0.716888 -1.137547,-0.705914 -0.433573,-0.01572 -0.90871,-10e-4 -1.227947,-0.34154 -0.228188,-0.349554 -0.332848,-0.77947 -0.502572,-1.158498 -0.201382,-0.683866 -0.498063,-1.345268 -1.115623,-1.750899 -0.346972,-0.168948 -0.715787,-0.257577 -1.1005,-0.164224 -0.61264,-0.03826 -0.675838,-0.691208 -0.743759,-1.183797 -0.07112,-0.915069 -0.170553,-1.833555 -0.428674,-2.717729 0,0 3.67263,-2.001929 3.67263,-2.001929 z"
     inkscape:connector-curvature="0" />
  <path
     style="opacity:1;fill:#000000;fill-opacity:1;stroke:none;stroke-width:11.33858299;stroke-linecap:butt;stroke-linejoin:round;stroke-miterlimit:4;stroke-dasharray:none;stroke-dashoffset:0;stroke-opacity:1"
     id="path848"
     d="m 59.139468,17.65082 c 0.0544,0.69496 -0.39309,1.330529 -0.37194,2.013101 0.0533,-0.157495 0.32105,-0.183226 0.44722,0.02635 0.0558,0.0926 0.0738,0.203197 0.11063,0.304796 0.0193,0.345593 -0.31421,0.583864 -0.34338,0.910864 0.21619,0.29082 0.26781,0.536563 0.17239,0.896214 -0.0747,0.267614 -0.30712,0.351372 -0.46183,0.54618 0,0 -3.82715,1.714059 -3.82715,1.714059 v 0 c 0.14822,-0.396951 0.13461,-0.325997 0.46214,-0.545251 0.34613,-0.290763 0.0828,-0.325745 -0.0719,-0.668385 -0.0717,-0.373991 0.0275,-0.696183 0.30965,-0.965629 0.0409,0.03296 0.0933,0.05539 0.12276,0.09889 0.0336,0.04955 -0.11949,0.02785 -0.17862,0.01851 -0.17125,-0.02708 -0.24777,-0.07287 -0.36157,-0.21391 -0.0408,-0.05056 -0.0606,-0.114965 -0.0908,-0.172447 -0.12924,-0.717131 0.36085,-1.345451 0.35403,-2.063634 0,0 3.72837,-1.899701 3.72837,-1.899701 z"
     inkscape:connector-curvature="0" />
  <path
     style="opacity:1;fill:#000000;fill-opacity:1;stroke:none;stroke-width:11.33858299;stroke-linecap:butt;stroke-linejoin:round;stroke-miterlimit:4;stroke-dasharray:none;stroke-dashoffset:0;stroke-opacity:1"
     id="path850"
     d="m 59.343008,39.198679 c -1.54026,0.51922 -3.53531,2.28044 2.54101,-1.583 0.046,-0.0292 -0.0699,-0.0922 -0.072,-0.14665 -0.001,-0.0372 0.042,-0.0615 0.063,-0.0922 0.3966,0.0341 1.01003,-0.007 1.24739,0.40538 0.0588,0.10203 0.07,0.22488 0.105,0.33732 -0.0201,0.11816 -0.0165,0.24285 -0.0602,0.35449 -0.24764,0.63401 -1.19583,1.19579 -1.74004,1.55289 -0.24007,0.21971 -0.95175,0.41672 -0.89234,0.84065 0,0 -3.72867,1.94934 -3.72867,1.94934 v 0 c -0.007,-0.10463 -0.0478,-0.20517 -0.055,-0.30981 -0.0352,-0.51284 0.45092,-0.74158 0.81669,-0.98525 0.70099,-0.40811 1.37577,-0.8753 1.9542,-1.44745 0.0154,-0.0245 0.0581,-0.0473 0.0461,-0.0736 -0.0937,-0.20509 -0.96352,-0.16711 -1.16886,-0.27474 -0.0886,-0.0695 -0.19682,-0.11944 -0.2659,-0.20836 -1.08769,-1.40003 3.10527,-2.23374 4.4897,-2.91132 0,0 -3.28014,2.59234 -3.28014,2.59234 z"
     inkscape:connector-curvature="0" />
  <path
     style="opacity:1;fill:#000000;fill-opacity:1;stroke:none;stroke-width:11.33858299;stroke-linecap:butt;stroke-linejoin:round;stroke-miterlimit:4;stroke-dasharray:none;stroke-dashoffset:0;stroke-opacity:1"
     id="path852"
     d="m 51.292508,58.204249 c 0.19795,0.79266 0.19495,1.6662 0.66687,2.35768 0.5527,0.55751 1.37049,0.65272 2.0915,0.87969 0.51947,0.24362 0.54611,0.70902 0.24254,1.14153 -1.09555,1.21471 -0.12011,0.16322 -3.8974,2.29272 -0.13579,0.0766 -0.5504,0.2928 -0.41499,0.21559 3.36226,-1.91719 4.30907,-2.64054 3.01131,-1.67321 -0.56408,0.55414 -1.1564,1.07862 -1.72708,1.62592 -0.576,0.63988 -1.1835,1.34252 -1.38059,2.20215 0.011,0.0427 0.004,0.0952 0.0331,0.12818 0.12617,0.14191 0.45412,0.0998 0.61129,0.1636 0.2795,0.11354 0.25249,0.18682 0.38751,0.45281 -0.002,0.12856 0.0236,0.26029 -0.005,0.38569 -0.15329,0.67639 -0.94685,1.34264 -1.39448,1.85342 -0.038,0.0478 -0.0531,0.14017 -0.11403,0.14324 -0.004,1.9e-4 -0.13185,-0.24471 -0.0327,-0.37951 0.12227,-0.16625 0.55666,-0.23992 0.74324,-0.32636 0.26419,-0.0428 0.24815,-0.083 0.37523,0.4263 0.0403,0.16142 -0.40595,0.4424 -0.49721,0.49621 -1.26918,0.74843 -2.55002,1.47691 -3.82503,2.21537 -0.56989,0.36594 -1.21019,0.48389 -1.87198,0.53989 -0.78417,0.0457 -1.56984,0.0515 -2.3551,0.0535 -0.30947,0.16916 -0.67247,-0.22983 -0.90534,-0.23312 -0.0619,-8.7e-4 -0.36361,0.12389 -0.38287,0.13133 -1.25141,0.73059 -3.23922,1.79906 2.54117,-1.45298 0.20584,-0.11581 -0.27134,0.20477 -0.28887,0.18152 -0.0353,-0.0468 -0.0208,-0.11529 -0.0313,-0.17293 0.23997,-0.0202 1.1195,-0.10768 1.28515,0.0171 0.0711,0.0536 0.10042,0.14691 0.15064,0.22037 0.005,0.11802 0.0498,0.24097 0.0156,0.35406 -0.0359,0.11868 -1.03367,1.10315 -1.18918,1.25936 -0.60774,0.61558 -1.27663,1.16424 -1.93308,1.72588 0.0207,-0.26468 -0.1852,0.27154 -0.24069,0.18655 -0.0841,-0.12879 -0.16795,-0.2728 -0.17647,-0.42638 -0.002,-0.0301 0.68986,-0.23457 0.76491,-0.25563 0.1998,-0.0487 0.46623,-0.1302 0.67986,-0.12437 0.30051,0.008 0.1906,0.0885 0.45954,0.0594 0.12742,-0.0138 0.35798,-0.10864 0.4654,-0.14815 1.23883,-0.72731 3.2818,-1.76364 -2.46155,1.40207 -0.13048,0.0719 0.24642,-0.16787 0.36421,-0.2591 0.11936,-0.0924 0.50065,-0.43049 0.61464,-0.53063 0.11269,-0.0864 0.21596,-0.18678 0.33808,-0.2593 1.30172,-0.77304 2.61257,-1.53085 3.93062,-2.27571 0.45841,-0.25905 0.98933,-0.3762 1.4599,-0.61429 0.0268,-0.0201 0.10733,-0.0802 0.0805,-0.0602 -1.19593,0.88931 -2.36638,1.81394 -3.58762,2.66816 -0.10931,0.0765 -0.25671,0.0727 -0.38468,0.11035 -0.16358,0.0481 -0.32753,0.0951 -0.48995,0.14705 -0.19817,0.0633 -0.9959,0.33825 -1.16917,0.39769 -1.21524,0.40442 -2.42495,0.84155 -3.69276,1.04555 -1.3437,0.21348 -4.01376,2.02037 2.64543,-1.66741 0.11802,-0.0654 -0.22669,0.14667 -0.33494,0.22718 -0.12091,0.0899 -0.23462,0.18914 -0.35193,0.2837 -0.10167,-0.0702 -0.70275,0.73647 -0.77881,0.77034 -0.0373,0.0166 -0.0303,-0.093 -0.002,-0.12263 0.11637,-0.12276 0.56442,-0.19616 0.65621,-0.2183 0.32016,-0.0258 1.91309,-0.60275 2.04698,-0.18985 0.0502,0.15487 0.0163,0.3252 0.0244,0.4878 -0.71643,0.59549 -1.50266,1.11842 -2.31182,1.58068 -4.16936,2.38189 -2.70968,1.73119 -4.7409,2.60079 -0.79676,0.3035 -1.62506,0.51417 -2.46908,0.62889 -0.79863,0.0698 -1.63331,0.24491 -2.34918,-0.19752 -0.42416,-0.59888 0.082,-1.0872 0.51231,-1.49662 0.10809,0.0569 -0.0393,-0.67239 0.0488,-0.0785 -0.52933,0.33158 -1.13289,0.50836 -1.73771,0.64163 -0.9005,0.10278 -1.81953,0.15684 -2.723861,0.0803 -0.932414,-0.20665 -0.9413,-0.82691 -0.465122,-1.50378 0.0463,-0.0515 0.07828,-0.12099 0.138904,-0.15443 0.02744,-0.0151 0.19476,0.27697 0.13418,0.46136 -0.03118,0.0949 -1.007797,0.32026 -1.104361,0.34333 -2.97266,0.87096 0.205352,-0.53201 2.34051,-2.38825 -1.362075,1.11127 -2.838193,2.99775 -4.82363,2.90208 -0.386745,-0.0902 -0.879413,0.003 -1.205314,-0.24624 -0.03544,-0.0228 -0.06537,-0.0584 -0.106331,-0.0683 -0.07079,-0.017 -0.113562,0.092 -0.176445,0.1287 -0.299883,0.17491 -0.655666,0.28351 -0.981176,0.39434 -0.407234,0.11106 -0.814079,0.27822 -1.244019,0.27473 -0.294541,-0.002 -0.567423,-0.11262 -0.862944,-0.12368 -0.69463,-0.007 -1.389414,0.004 -2.083886,0.0187 -0.41946,-0.0208 -0.678311,-0.25299 -0.86573,-0.6069 -0.156595,-0.29934 -0.41455,-0.4702 -0.682132,-0.66184 -0.167803,-0.1456 -0.309837,-0.30951 -0.496505,-0.43029 0,0 3.550661,-2.23699 3.550661,-2.23699 v 0 c 0.158203,0.14163 0.305527,0.29488 0.475602,0.42285 0.32079,0.22784 0.610058,0.47296 0.80457,0.8211 0.117849,0.24592 0.330072,0.23612 0.583253,0.23668 0.705172,-0.004 1.411592,-0.0315 2.115928,0.0121 0.719455,0.10089 1.29268,0.007 1.974894,-0.28133 0.492614,-0.19154 1.014513,-0.53089 1.511304,-0.20715 0.348513,-0.0234 0.706322,0.14984 1.060127,0.0848 1.849803,-0.25174 3.675803,-2.03687 -1.842594,2.18827 -1.495502,0.25523 2.040458,-2.15904 3.175697,-2.47733 0.19397,-0.0544 0.39337,-0.0879 0.58757,-0.14151 0.15964,-0.044 0.31849,-0.0909 0.47774,-0.13637 0.0952,-0.0281 1.10206,-0.38073 1.16221,-0.35868 0.37817,0.13862 0.56741,0.42717 0.23366,0.6129 -0.56287,0.46743 0.1315,-0.13036 -0.3534,0.35195 -0.0396,0.0394 -0.10464,0.0529 -0.13435,0.10026 -0.0949,0.15116 0.38008,0.40328 0.47304,0.25091 0.88844,0.034 1.79252,10e-4 2.66219,-0.19484 0.61953,-0.17752 1.21575,-0.52447 1.86266,-0.5342 0.0887,0.0847 0.1902,0.15775 0.2662,0.25401 0.15553,0.19695 -0.009,0.0581 -0.0223,0.14754 -0.0155,0.10089 0.18819,0.33566 0.11465,0.41885 -0.1345,0.29539 -0.45525,0.5908 -0.72649,0.77511 -0.0418,0.0284 -0.103,0.0225 -0.14104,0.0558 -0.015,0.0131 0.007,0.0393 0.01,0.0589 0.68429,0.27496 1.46656,0.0557 2.17273,-0.008 0.81042,-0.15493 1.61368,-0.36147 2.37325,-0.68939 1.60248,-0.74371 0.594,-0.29795 -2.30184,1.42377 -0.22226,0.13214 0.45431,-0.24752 0.67488,-0.38246 0.85362,-0.52222 0.40148,-0.29395 1.1889,-0.80176 0.13181,-0.085 0.27115,-0.15772 0.40672,-0.23658 0.10144,0.0562 0.20973,0.10152 0.30432,0.16861 0.076,0.0539 -0.17833,0.055 -0.26983,0.0722 -0.52129,0.0982 -1.03539,0.23467 -1.55865,0.32359 -0.39705,0.0403 -1.06679,0.14051 -1.15865,-0.4515 -0.0417,-0.2688 0.60245,-0.75608 0.75088,-0.91307 1.48084,-1.31844 3.19792,-2.67944 5.20251,-2.89619 1.24028,-0.22939 2.42758,-0.67305 3.62036,-1.07311 1.93211,-0.66203 5.01157,-1.84612 -0.96908,1.8606 -0.33254,0.13109 -0.66888,0.2546 -0.99288,0.40628 -0.14267,0.0668 -0.55691,0.29416 -0.42177,0.2132 3.86269,-2.31412 4.11082,-2.49018 2.81591,-1.62316 -0.33221,0.25891 -0.60992,0.6178 -0.97064,0.83587 -1.36015,0.82223 -3.05391,2.0295 -4.71382,2.64581 -0.53222,0.0926 -1.07592,-0.0173 -1.58965,0.21388 -0.12553,0.0372 -0.74231,0.30154 -0.87894,0.19017 -0.45143,-0.36794 -0.33698,-0.45883 -0.0286,-0.67804 0.66655,-0.54225 1.33051,-1.09048 1.94266,-1.69404 0.14134,-0.13471 1.11131,-1.18202 1.17882,-1.19332 0.0765,-0.0128 0.13676,0.0734 0.20513,0.11004 0.0189,0.0237 0.0821,0.055 0.0565,0.0711 -0.11116,0.0702 -1.23997,-0.066 -1.40248,-0.17381 -0.20284,-0.27476 -0.42394,-0.50909 -0.007,-0.76198 1.19748,-0.72653 3.02867,-2.04466 4.66774,-2.56805 0.0987,-0.004 0.19772,-0.0225 0.29606,-0.0132 0.34784,0.0332 0.65102,0.30124 1.02833,0.18583 0.77397,-0.001 1.55068,-6.2e-4 2.3204,-0.0919 0.64161,-0.10889 1.23419,-0.32074 1.7862,-0.67294 -1.10432,0.64429 -2.20863,1.28857 -3.31295,1.93285 0.059,-0.0356 0.44786,-0.37367 0.53878,-0.29043 0.39779,0.3642 0.39432,0.32875 0.18265,0.43084 -0.20747,0.0734 -0.58997,0.29209 -0.80699,0.25701 -0.34389,-0.0556 -0.55626,-0.39176 -0.33301,-0.66988 0.53278,-0.59546 1.11659,-1.14798 1.57815,-1.802 -0.0101,-0.15293 -0.35614,-0.18713 -0.45701,-0.23094 -0.34287,-0.14894 -0.5813,-0.352 -0.66912,-0.7279 0.0951,-0.94885 0.72298,-1.72729 1.30001,-2.45037 0.53912,-0.58005 1.1729,-1.05613 1.69681,-1.65177 0.0865,-0.0845 0.15642,-0.19042 0.25963,-0.25347 1.26869,-0.77495 2.56112,-1.51041 3.84764,-2.25537 0.0752,-0.0435 0.15748,-0.0735 0.23651,-0.10954 0.0678,-0.031 0.26827,-0.12959 0.20409,-0.0916 -1.13538,0.67183 -2.28404,1.32105 -3.41884,1.99386 -0.0496,0.0294 0.10755,-0.0417 0.16132,-0.0625 0.072,-0.057 0.26838,-0.25401 0.33709,-0.28862 0.0557,-0.028 0.19917,0.0506 -0.15699,-0.13018 -0.80224,-0.26848 -1.67131,-0.43132 -2.23705,-1.12063 -0.49668,-0.77895 -0.51396,-1.59994 -0.74867,-2.47249 0,0 3.67432,-1.98699 3.67432,-1.98699 z"
     inkscape:connector-curvature="0" />
</svg>
