<?xml version="1.0" encoding="UTF-8" standalone="no"?>
<!-- Created with Inkscape (http://www.inkscape.org/) -->

<svg
   xmlns:dc="http://purl.org/dc/elements/1.1/"
   xmlns:cc="http://creativecommons.org/ns#"
   xmlns:rdf="http://www.w3.org/1999/02/22-rdf-syntax-ns#"
   xmlns:svg="http://www.w3.org/2000/svg"
   xmlns="http://www.w3.org/2000/svg"
   xmlns:sodipodi="http://sodipodi.sourceforge.net/DTD/sodipodi-0.dtd"
   xmlns:inkscape="http://www.inkscape.org/namespaces/inkscape"
   width="385.46133mm"
   height="108.36557mm"
   viewBox="0 0 385.46133 108.36557"
   version="1.1"
   id="svg8"
   inkscape:version="0.92.4 5da689c313, 2019-01-14"
   sodipodi:docname="skel_erode.svg">
  <defs
     id="defs2">
    <marker
       inkscape:stockid="Arrow2Lend"
       orient="auto"
       refY="0.0"
       refX="0.0"
       id="Arrow2Lend"
       style="overflow:visible;"
       inkscape:isstock="true">
      <path
         id="path1006"
         style="fill-rule:evenodd;stroke-width:0.625;stroke-linejoin:round;stroke:#000000;stroke-opacity:1;fill:#000000;fill-opacity:1"
         d="M 8.7185878,4.0337352 L -2.2072895,0.016013256 L 8.7185884,-4.0017078 C 6.9730900,-1.6296469 6.9831476,1.6157441 8.7185878,4.0337352 z "
         transform="scale(1.1) rotate(180) translate(1,0)" />
    </marker>
    <marker
       inkscape:stockid="Arrow1Lend"
       orient="auto"
       refY="0.0"
       refX="0.0"
       id="Arrow1Lend"
       style="overflow:visible;"
       inkscape:isstock="true">
      <path
         id="path988"
         d="M 0.0,0.0 L 5.0,-5.0 L -12.5,0.0 L 5.0,5.0 L 0.0,0.0 z "
         style="fill-rule:evenodd;stroke:#000000;stroke-width:1pt;stroke-opacity:1;fill:#000000;fill-opacity:1"
         transform="scale(0.8) rotate(180) translate(12.5,0)" />
    </marker>
  </defs>
  <sodipodi:namedview
     id="base"
     pagecolor="#ffffff"
     bordercolor="#666666"
     borderopacity="1.0"
     inkscape:pageopacity="0.0"
     inkscape:pageshadow="2"
     inkscape:zoom="0.35"
     inkscape:cx="1362.9949"
     inkscape:cy="182.35234"
     inkscape:document-units="mm"
     inkscape:current-layer="layer1"
     showgrid="false"
     fit-margin-top="0"
     fit-margin-left="0"
     fit-margin-right="0"
     fit-margin-bottom="0"
     inkscape:window-width="1920"
     inkscape:window-height="1006"
     inkscape:window-x="0"
     inkscape:window-y="0"
     inkscape:window-maximized="1" />
  <metadata
     id="metadata5">
    <rdf:RDF>
      <cc:Work
         rdf:about="">
        <dc:format>image/svg+xml</dc:format>
        <dc:type
           rdf:resource="http://purl.org/dc/dcmitype/StillImage" />
        <dc:title></dc:title>
      </cc:Work>
    </rdf:RDF>
  </metadata>
  <g
     inkscape:label="Layer 1"
     inkscape:groupmode="layer"
     id="layer1"
     transform="translate(-3.2352656,-3.1802056)">
    <g
       id="g845"
       transform="translate(0,-2.3666666e-6)">
      <path
         inkscape:connector-curvature="0"
         id="path815"
         d="M 8.315476,111.03571 C 31.380139,97.719323 32.883927,70.214285 32.883927,70.214285 c 0,0 2.267858,-13.607142 -12.095237,-25.702381 C 6.4255951,32.416665 15.119047,29.01488 15.119047,29.01488 c 0,0 0.755953,-7.559523 -3.023809,-6.047618 C 8.315476,24.479166 3.4017857,3.3124997 3.4017857,3.3124997 H 22.678571 c 0,0 1.133929,6.047619 0.755953,12.0952383 -0.377977,6.047619 -4.913691,6.047619 -4.535715,9.449404 0.377977,3.401786 6.047619,3.023811 10.583333,9.071429 4.535715,6.047618 11.339285,12.095239 12.473215,17.764881 1.133927,5.669643 1.511903,16.252976 5.669642,16.252976 4.15774,0 13.985119,-5.291667 14.363094,-10.583333 0.377979,-5.291667 -0.377975,-13.229167 -3.401785,-17.764882 -3.023809,-4.535715 -14.741069,-8.315475 -17.764881,-7.9375 -3.023809,0.377976 -8.315476,-0.755951 -8.315476,-3.77976 0,-3.023811 0.755954,-6.04762 4.913691,-6.04762 4.157739,0 18.520833,9.82738 20.788691,7.559523 2.267857,-2.267858 0,-13.229166 -5.291667,-18.142856 -5.291667,-4.9136907 -15.875,-7.559524 -15.875,-7.559524 h 20.032739 c 0,0 10.961309,9.071428 12.095237,15.119047 1.13393,6.047619 1.13393,17.008929 4.535715,12.473215 3.401785,-4.535715 6.047618,-10.205357 4.91369,-14.363095 -1.13393,-4.157739 -8.693454,-12.0952385 -4.157739,-12.8511909 4.535715,-0.7559524 7.181548,10.9613099 10.205358,11.3392859 3.023809,0.377976 3.401785,-6.8035717 5.669642,-6.4255954 2.267858,0.3779761 -4.157737,12.0952384 -2.645833,12.8511904 1.511906,0.755952 4.913691,2.645833 9.449405,-0.755952 4.53571,-3.401786 -4.157739,-9.071429 1.133928,-10.96131 5.291662,-1.8898808 3.779762,5.669643 9.449402,7.559524 5.66965,1.889881 8.31548,-9.4494048 14.74107,-6.047619 6.4256,3.401786 -28.726187,19.276786 -24.568448,21.166667 4.157738,1.889879 22.678568,-9.071429 24.568448,-4.91369 1.88989,4.157736 -10.96131,4.91369 -10.58333,7.937499 0.37798,3.02381 18.14286,-1.13393 17.00893,3.02381 -1.13393,4.157736 -33.639881,1.511903 -40.443454,9.071427 -6.80357,7.559524 -5.669642,15.119048 2.645834,15.119048 8.315478,0 13.98512,-1.511906 17.38691,-4.913691 3.40178,-3.401785 3.0238,-10.583333 5.29166,-10.583333 2.26786,0 1.51191,9.827382 4.91369,9.449406 3.40179,-0.377976 7.18155,-2.267858 7.55953,-4.913691 0.37797,-2.645833 -6.80358,-6.803572 -3.40179,-7.9375 3.40179,-1.13393 6.04762,9.449403 10.20536,9.071428 4.15774,-0.377976 15.49702,-16.630952 20.41071,-10.961309 4.91369,5.669642 -11.33928,12.473214 -10.96131,15.119048 0.37798,2.645833 11.71726,-0.755952 11.71726,3.023809 0,3.779761 7.9375,4.535715 7.9375,2.267857 0,-2.267857 15.11905,-1.889881 15.11905,-1.889881 l 0.37798,12.473214 c 0,0 -15.875,-2.267857 -15.875,-5.291666 0,-3.023809 -27.97024,-4.157739 -35.90774,-0.755952 -7.9375,3.401785 -69.547619,23.056546 -55.940477,32.883924 13.607145,9.82738 40.443457,11.33929 40.443457,11.33929"
         style="fill:none;stroke:#000000;stroke-width:0.26458332px;stroke-linecap:butt;stroke-linejoin:miter;stroke-opacity:1" />
      <path
         inkscape:connector-curvature="0"
         id="path817"
         d="m 82.452648,4.2062324 h 22.985182 c 0,0 -8.819896,4.9444861 -15.100731,4.6772165 C 84.056266,8.6161795 82.452648,4.2062324 82.452648,4.2062324 Z"
         style="fill:none;stroke:#000000;stroke-width:0.26458332px;stroke-linecap:butt;stroke-linejoin:miter;stroke-opacity:1" />
    </g>
    <path
       inkscape:connector-curvature="0"
       id="path861"
       d="m 219.22627,111.03571 c 23.06466,-13.316389 24.56845,-40.821427 24.56845,-40.821427 0,0 2.26785,-13.607142 -12.09524,-25.702381 -14.36309,-12.095239 -5.66964,-15.497024 -5.66964,-15.497024 0,0 0.75595,-7.559523 -3.02381,-6.047618 -3.77976,1.511904 -8.69345,-19.6547627 -8.69345,-19.6547627 h 19.27678 c 0,0 1.13393,6.047619 0.75595,12.0952387 -0.37797,6.047619 -4.91369,6.047619 -4.53571,9.449404 0.37798,3.401786 6.04762,3.023811 10.58333,9.071429 4.53572,6.047618 11.33929,12.095239 12.47322,17.764881 1.13392,5.669643 1.5119,16.252976 5.66964,16.252976 4.15774,0 13.98512,-5.291667 14.36309,-10.583333 0.37798,-5.291667 -0.37797,-13.229167 -3.40178,-17.764882 -3.02381,-4.535715 -14.74107,-8.315475 -17.76488,-7.9375 -3.02381,0.377976 -8.31548,-0.755951 -8.31548,-3.77976 0,-3.023811 0.75595,-6.04762 4.91369,-6.04762 4.15774,0 18.52084,9.82738 20.78869,7.559523 2.26786,-2.267858 0,-13.229166 -5.29166,-18.142856 -5.29167,-4.9136911 -15.875,-7.5595244 -15.875,-7.5595244 h 20.03273 c 0,0 10.96131,9.0714284 12.09524,15.1190474 1.13393,6.047619 1.13393,17.008929 4.53572,12.473215 3.40178,-4.535715 6.04762,-10.205357 4.91369,-14.363095 -1.13393,-4.157739 -8.69346,-12.0952389 -4.15774,-12.8511913 4.53571,-0.7559524 7.18155,10.9613103 10.20536,11.3392863 3.02381,0.377976 3.40178,-6.8035721 5.66964,-6.4255958 2.26786,0.3779761 -4.15774,12.0952388 -2.64583,12.8511908 1.5119,0.755952 4.91369,2.645833 9.4494,-0.755952 4.53571,-3.401786 -4.15774,-9.071429 1.13393,-10.96131 5.29166,-1.8898812 3.77976,5.669643 9.4494,7.559524 5.66965,1.889881 8.31548,-9.4494052 14.74107,-6.047619 6.4256,3.401786 -28.72619,19.276786 -24.56845,21.166667 4.15774,1.889879 22.67857,-9.071429 24.56845,-4.91369 1.88989,4.157736 -10.96131,4.91369 -10.58333,7.937499 0.37798,3.02381 18.14286,-1.13393 17.00893,3.02381 -1.13393,4.157736 -33.63988,1.511903 -40.44345,9.071427 -6.80357,7.559524 -5.66965,15.119048 2.64583,15.119048 8.31548,0 13.98512,-1.511906 17.38691,-4.913691 3.40178,-3.401785 3.0238,-10.583333 5.29166,-10.583333 2.26786,0 1.51191,9.827382 4.91369,9.449406 3.40179,-0.377976 7.18155,-2.267858 7.55953,-4.913691 0.37797,-2.645833 -6.80358,-6.803572 -3.40179,-7.9375 3.40179,-1.13393 6.04762,9.449403 10.20536,9.071428 4.15774,-0.377976 15.49702,-16.630952 20.41071,-10.961309 4.91369,5.669642 -11.33928,12.473214 -10.96131,15.119048 0.37798,2.645833 11.71726,-0.755952 11.71726,3.023809 0,3.779761 7.9375,4.535715 7.9375,2.267857 0,-2.267857 15.11905,-1.889881 15.11905,-1.889881 l 0.37798,12.473214 c 0,0 -15.875,-2.267857 -15.875,-5.291666 0,-3.023809 -27.97024,-4.157739 -35.90774,-0.755952 -7.9375,3.401785 -69.54762,23.056546 -55.94048,32.883926 13.60715,9.82738 40.44346,11.33929 40.44346,11.33929"
       style="fill:none;stroke:#000000;stroke-width:0.26458332;stroke-linecap:butt;stroke-linejoin:miter;stroke-miterlimit:4;stroke-dasharray:0.52916663, 0.52916663;stroke-dashoffset:0;stroke-opacity:0.50196078" />
    <path
       inkscape:connector-curvature="0"
       id="path863"
       d="m 293.36344,4.20623 h 22.98518 c 0,0 -8.8199,4.9444861 -15.10073,4.6772165 C 294.96706,8.6161771 293.36344,4.20623 293.36344,4.20623 Z"
       style="fill:none;stroke:#000000;stroke-width:0.26458332;stroke-linecap:butt;stroke-linejoin:miter;stroke-miterlimit:4;stroke-dasharray:0.52916663, 0.52916663;stroke-dashoffset:0;stroke-opacity:0.50196078" />
    <path
       style="fill:none;stroke:#000000;stroke-width:0.26458332px;stroke-linecap:butt;stroke-linejoin:miter;stroke-opacity:1"
       d="m 231.51041,110.84673 c 12.09524,-10.58334 19.65476,-39.309528 14.74107,-50.270837 -4.91369,-10.961312 -24.75744,-27.592263 -16.25297,-29.482145 8.50446,-1.889879 19.84375,23.434524 21.35565,30.238097 1.5119,6.803569 2.64582,10.772319 4.72471,10.961309 2.07885,0.188989 19.08778,-0.566965 20.59969,-8.693452 1.5119,-8.126489 0.56697,-24.379465 -4.7247,-26.836309 -5.29166,-2.456846 -21.78088,-6.614583 -20.64695,-9.260417 1.13393,-2.645833 17.67039,6.283854 19.56028,4.393972 1.88987,-1.889882 1.32289,-10.394345 0.14174,-13.040178 -1.18118,-2.645833 -5.66965,-9.4494047 -8.69347,-11.1502974 -3.02381,-1.700893 -8.83517,-4.0159971 -8.83517,-4.0159971 h 13.04017 c 0,0 9.82737,10.8668155 10.67782,13.7488835 0.85045,2.882069 1.74815,16.489212 4.39399,17.528646 2.64583,1.039434 10.01635,-9.071428 10.39434,-13.134672 0.37795,-4.063244 -2.83483,-8.409971 -3.5908,-9.732887 -0.75594,-1.322917 -2.83207,-4.6201622 -1.79638,-5.1212926 1.03565,-0.5011303 6.11378,9.4546596 6.9824,9.6217026 0.86863,0.167044 3.0402,-1.202713 3.8086,-0.801808 0.76838,0.400904 -0.43431,4.944486 0.0334,5.846521 0.46773,0.902034 1.53681,2.873147 2.87316,3.006782 1.33633,0.133635 8.68625,-0.26727 9.88896,-2.539061 1.20272,-2.271791 0.4009,-4.977895 1.60362,-5.61266 1.20271,-0.634765 6.65538,3.442822 9.01771,2.592375 2.36236,-0.850446 6.37837,-4.063244 6.85083,-2.976562 0.47247,1.086681 -18.47358,12.614954 -19.18229,13.370906 -0.70871,0.755954 -3.7325,2.4096 -3.16555,3.638021 0.56697,1.228423 2.55135,2.882069 4.6302,2.504093 2.07889,-0.377976 8.78795,-3.685267 9.59115,-2.409597 0.8032,1.27567 -0.14174,2.456844 0.14174,3.165549 0.2835,0.708705 4.77194,2.031621 11.10305,2.031621 6.33111,0 3.44903,1.228424 -0.33073,1.370166 -3.77976,0.14174 -29.86011,1.41741 -32.50594,4.771949 -2.64583,3.354538 -7.1343,9.165923 -5.62239,14.221354 1.5119,5.05543 4.25222,7.370534 7.9375,7.276041 3.68524,-0.09449 16.86718,-2.504093 18.75705,-3.732514 1.88989,-1.228423 3.16555,-6.047621 4.72472,-6.236607 1.55913,-0.18899 3.30729,3.77976 5.00816,3.590774 1.7009,-0.188989 7.65403,-1.13393 8.69347,-2.173364 1.03944,-1.039435 0.66146,-3.401785 1.55914,-3.732514 0.8977,-0.33073 2.07888,2.598586 3.92152,2.50409 1.84264,-0.09449 10.2526,-6.189358 11.0558,-6.945312 0.80319,-0.755952 5.24441,-5.197171 6.18934,-4.866442 0.94496,0.33073 -5.71688,9.024181 -8.26823,11.386532 -2.55132,2.362351 -0.0945,4.252232 1.41743,4.441222 1.51191,0.188986 5.57514,0.377975 7.84299,0.992187 2.26788,0.614209 5.14993,1.842632 4.86646,2.787573 -0.28348,0.944941 -14.12688,-0.803198 -19.08781,-0.519718 -4.96094,0.283482 -27.92299,7.181548 -36.66369,10.677829 -8.74069,3.496278 -33.02566,12.331472 -35.19903,18.284597 -2.17336,5.953125 -0.85045,10.016371 3.49629,12.284221 4.34673,2.26786 18.04836,5.85864 18.04836,5.85864"
       id="path895"
       inkscape:connector-curvature="0"
       sodipodi:nodetypes="cssscccscccccscccccccccccccccscssscsccsscccccsccssccc" />
    <g
       id="g953">
      <path
         inkscape:connector-curvature="0"
         id="path819"
         d="M 34.773809,109.52381 46.113094,87.979164 72.949405,72.104164 75.595238,46.02381 89.580356,29.770832 104.32143,22.211309 117.92857,15.407738"
         style="fill:none;stroke:#f50000;stroke-width:0.26458332px;stroke-linecap:butt;stroke-linejoin:miter;stroke-opacity:1" />
      <path
         inkscape:connector-curvature="0"
         id="path821"
         d="M 46.113094,87.979162 20.977678,35.062498 17.008928,25.235118 14.363095,10.872023"
         style="fill:none;stroke:#ff0000;stroke-width:0.26458332px;stroke-linecap:butt;stroke-linejoin:miter;stroke-opacity:1" />
      <path
         inkscape:connector-curvature="0"
         id="path823"
         d="M 75.595238,46.02381 64.822916,35.818452 37.986607,26.747023"
         style="fill:none;stroke:#ff0000;stroke-width:0.26458332px;stroke-linecap:butt;stroke-linejoin:miter;stroke-opacity:1" />
      <path
         inkscape:connector-curvature="0"
         id="path825"
         d="M 64.822916,35.818452 63.122023,18.620535 51.971725,5.7693448"
         style="fill:none;stroke:#ff0000;stroke-width:0.26458332px;stroke-linecap:butt;stroke-linejoin:miter;stroke-opacity:1" />
      <path
         inkscape:connector-curvature="0"
         id="path827"
         d="M 89.580354,29.770832 83.15476,21.07738 76.162201,7.6592257"
         style="fill:none;stroke:#ff0000;stroke-width:0.26458332px;stroke-linecap:butt;stroke-linejoin:miter;stroke-opacity:1" />
      <path
         inkscape:connector-curvature="0"
         id="path829"
         d="M 83.15476,21.07738 89.202381,12.005952 91.09226,5.958333"
         style="fill:none;stroke:#ff0000;stroke-width:0.26458332px;stroke-linecap:butt;stroke-linejoin:miter;stroke-opacity:1" />
      <path
         inkscape:connector-curvature="0"
         id="path831"
         d="M 75.595238,46.02381 99.785714,39.220237 122.84226,39.031248"
         style="fill:none;stroke:#ff0000;stroke-width:0.26458332px;stroke-linecap:butt;stroke-linejoin:miter;stroke-opacity:1" />
      <path
         inkscape:connector-curvature="0"
         id="path833"
         d="M 99.785714,39.220237 118.30655,29.392856"
         style="fill:none;stroke:#ff0f0f;stroke-width:0.26458332px;stroke-linecap:butt;stroke-linejoin:miter;stroke-opacity:1" />
      <path
         inkscape:connector-curvature="0"
         id="path835"
         d="m 72.949405,72.104162 c 0,0 37.419645,-7.559519 38.553565,-7.559519 1.13393,0 19.65477,-4.157739 19.65477,-4.157739 l 18.70982,2.078868 8.69345,2.645833 15.30804,1.700893"
         style="fill:none;stroke:#ff0000;stroke-width:0.26458332px;stroke-linecap:butt;stroke-linejoin:miter;stroke-opacity:1" />
      <path
         inkscape:connector-curvature="0"
         id="path837"
         d="m 111.69196,64.355654 1.7009,-9.260417"
         style="fill:none;stroke:#ff0000;stroke-width:0.26458332px;stroke-linecap:butt;stroke-linejoin:miter;stroke-opacity:1" />
      <path
         inkscape:connector-curvature="0"
         id="path839"
         d="m 125.67708,47.913689 5.48066,12.473215 18.52083,-14.741071"
         style="fill:none;stroke:#ff0000;stroke-width:0.26458332px;stroke-linecap:butt;stroke-linejoin:miter;stroke-opacity:1" />
      <path
         inkscape:connector-curvature="0"
         id="path841"
         d="m 149.86756,62.465772 v 0 l 2.04176,-1.899079"
         style="fill:none;stroke:#ff0000;stroke-width:0.26458332px;stroke-linecap:butt;stroke-linejoin:miter;stroke-opacity:1" />
      <path
         inkscape:connector-curvature="0"
         id="path897"
         d="m 104.26852,22.230221 -3.74177,-7.617182"
         style="fill:none;stroke:#ff0000;stroke-width:0.26458332px;stroke-linecap:butt;stroke-linejoin:miter;stroke-opacity:1" />
    </g>
    <g
       id="g926"
       style="stroke:#ff0000;stroke-opacity:0.9800995;stroke-width:0.3;stroke-miterlimit:4;stroke-dasharray:0.9,0.9;stroke-dashoffset:0"
       transform="translate(-11.339286)">
      <path
         style="fill:none;stroke:#ff0000;stroke-width:0.3;stroke-linecap:butt;stroke-linejoin:miter;stroke-miterlimit:4;stroke-dasharray:0.9,0.9;stroke-dashoffset:0;stroke-opacity:0.9800995"
         d="m 257.02389,109.52381 11.33928,-21.544646 26.83631,-15.875 2.64584,-26.080354 13.98512,-16.252978 14.74107,-7.559523 13.60714,-6.803571"
         id="path867"
         inkscape:connector-curvature="0" />
      <path
         style="fill:none;stroke:#ff0000;stroke-width:0.3;stroke-linecap:butt;stroke-linejoin:miter;stroke-miterlimit:4;stroke-dasharray:0.9,0.9;stroke-dashoffset:0;stroke-opacity:0.9800995"
         d="m 268.36317,87.979162 -25.13541,-52.916664 -3.96875,-9.82738 -2.64584,-14.363095"
         id="path869"
         inkscape:connector-curvature="0" />
      <path
         style="fill:none;stroke:#ff0000;stroke-width:0.3;stroke-linecap:butt;stroke-linejoin:miter;stroke-miterlimit:4;stroke-dasharray:0.9,0.9;stroke-dashoffset:0;stroke-opacity:0.9800995"
         d="M 297.84532,46.02381 287.073,35.818452 260.23669,26.747023"
         id="path871"
         inkscape:connector-curvature="0" />
      <path
         style="fill:none;stroke:#ff0000;stroke-width:0.3;stroke-linecap:butt;stroke-linejoin:miter;stroke-miterlimit:4;stroke-dasharray:0.9,0.9;stroke-dashoffset:0;stroke-opacity:0.9800995"
         d="M 287.073,35.818452 285.3721,18.620535 274.22181,5.7693448"
         id="path873"
         inkscape:connector-curvature="0" />
      <path
         style="fill:none;stroke:#ff0000;stroke-width:0.3;stroke-linecap:butt;stroke-linejoin:miter;stroke-miterlimit:4;stroke-dasharray:0.9,0.9;stroke-dashoffset:0;stroke-opacity:0.9800995"
         d="M 311.83043,29.770832 305.40484,21.07738 298.41228,7.6592257"
         id="path875"
         inkscape:connector-curvature="0" />
      <path
         style="fill:none;stroke:#ff0000;stroke-width:0.3;stroke-linecap:butt;stroke-linejoin:miter;stroke-miterlimit:4;stroke-dasharray:0.9,0.9;stroke-dashoffset:0;stroke-opacity:0.9800995"
         d="m 305.40484,21.07738 6.04762,-9.071428 1.88988,-6.047619"
         id="path877"
         inkscape:connector-curvature="0" />
      <path
         style="fill:none;stroke:#ff0000;stroke-width:0.3;stroke-linecap:butt;stroke-linejoin:miter;stroke-miterlimit:4;stroke-dasharray:0.9,0.9;stroke-dashoffset:0;stroke-opacity:0.9800995"
         d="m 297.84532,46.02381 24.19047,-6.803573 23.05655,-0.188989"
         id="path879"
         inkscape:connector-curvature="0" />
      <path
         style="fill:none;stroke:#ff0000;stroke-width:0.3;stroke-linecap:butt;stroke-linejoin:miter;stroke-miterlimit:4;stroke-dasharray:0.9,0.9;stroke-dashoffset:0;stroke-opacity:0.9800995"
         d="m 322.03579,39.220237 18.52084,-9.827381"
         id="path881"
         inkscape:connector-curvature="0" />
      <path
         style="fill:none;stroke:#ff0000;stroke-width:0.3;stroke-linecap:butt;stroke-linejoin:miter;stroke-miterlimit:4;stroke-dasharray:0.9,0.9;stroke-dashoffset:0;stroke-opacity:0.9800995"
         d="m 295.19948,72.104162 c 0,0 37.41965,-7.559519 38.55357,-7.559519 1.13393,0 19.65477,-4.157739 19.65477,-4.157739 l 18.70982,2.078868 8.69345,2.645833 15.30804,1.700893"
         id="path883"
         inkscape:connector-curvature="0" />
      <path
         style="fill:none;stroke:#ff0000;stroke-width:0.3;stroke-linecap:butt;stroke-linejoin:miter;stroke-miterlimit:4;stroke-dasharray:0.9,0.9;stroke-dashoffset:0;stroke-opacity:0.9800995"
         d="m 333.94204,64.355654 1.7009,-9.260417"
         id="path885"
         inkscape:connector-curvature="0" />
      <path
         style="fill:none;stroke:#ff0000;stroke-width:0.3;stroke-linecap:butt;stroke-linejoin:miter;stroke-miterlimit:4;stroke-dasharray:0.9,0.9;stroke-dashoffset:0;stroke-opacity:0.9800995"
         d="m 347.92716,47.913689 5.48066,12.473215 18.52083,-14.741071"
         id="path887"
         inkscape:connector-curvature="0" />
      <path
         style="fill:none;stroke:#ff0000;stroke-width:0.3;stroke-linecap:butt;stroke-linejoin:miter;stroke-miterlimit:4;stroke-dasharray:0.9,0.9;stroke-dashoffset:0;stroke-opacity:0.9800995"
         d="m 372.11764,62.465772 v 0 l 2.04176,-1.899079"
         id="path889"
         inkscape:connector-curvature="0" />
      <path
         style="fill:none;stroke:#ff0000;stroke-width:0.3;stroke-linecap:butt;stroke-linejoin:miter;stroke-miterlimit:4;stroke-dasharray:0.9,0.9;stroke-dashoffset:0;stroke-opacity:0.9800995"
         d="m 326.51866,22.230221 -3.74177,-7.617182"
         id="path899"
         inkscape:connector-curvature="0" />
    </g>
    <path
       style="fill:none;stroke:#ff0000;stroke-width:0.26458332px;stroke-linecap:butt;stroke-linejoin:miter;stroke-opacity:1"
       d="M 245.6846,109.52381 257.02388,87.979162 230.20554,30.966592"
       id="path955"
       inkscape:connector-curvature="0" />
    <path
       style="fill:none;stroke:#ff0000;stroke-width:0.26458332px;stroke-linecap:butt;stroke-linejoin:miter;stroke-opacity:1"
       d="m 257.02388,87.979162 26.83631,-15.875 2.64584,-26.080352 -10.77233,-10.205358 -24.48068,-8.276251"
       id="path957"
       inkscape:connector-curvature="0" />
    <path
       style="fill:none;stroke:#ff0000;stroke-width:0.26458332px;stroke-linecap:butt;stroke-linejoin:miter;stroke-opacity:1"
       d="M 275.7337,35.818452 274.0328,18.620535 262.88252,5.7693448"
       id="path959"
       inkscape:connector-curvature="0" />
    <path
       style="fill:none;stroke:#ff1d1d;stroke-width:0.26458332px;stroke-linecap:butt;stroke-linejoin:miter;stroke-opacity:1"
       d="M 286.50603,46.02381 300.49114,29.770832 294.06554,21.07738 287.07298,7.6592257"
       id="path961"
       inkscape:connector-curvature="0" />
    <path
       style="fill:none;stroke:#f22020;stroke-width:0.26458332px;stroke-linecap:butt;stroke-linejoin:miter;stroke-opacity:1"
       d="m 294.06554,21.07738 3.44895,-5.179455"
       id="path963"
       inkscape:connector-curvature="0" />
    <path
       style="fill:none;stroke:#ff0000;stroke-width:0.26458332px;stroke-linecap:butt;stroke-linejoin:miter;stroke-opacity:1"
       d="m 300.49114,29.770832 14.68823,-7.540611 -2.84112,-5.818485"
       id="path965"
       inkscape:connector-curvature="0" />
    <path
       style="fill:none;stroke:#ff0000;stroke-width:0.26458332px;stroke-linecap:butt;stroke-linejoin:miter;stroke-opacity:1"
       d="m 315.17937,22.230221 12.4551,-6.172838"
       id="path967"
       inkscape:connector-curvature="0" />
    <path
       style="fill:none;stroke:#ff0e0e;stroke-width:0.26458332px;stroke-linecap:butt;stroke-linejoin:miter;stroke-opacity:1"
       d="m 286.50603,46.02381 24.19045,-6.803573 9.16586,-4.860538"
       id="path969"
       inkscape:connector-curvature="0" />
    <path
       style="fill:none;stroke:#ff0000;stroke-width:0.26458332px;stroke-linecap:butt;stroke-linejoin:miter;stroke-opacity:1"
       d="m 310.69648,39.220237 23.05656,-0.188989"
       id="path971"
       inkscape:connector-curvature="0" />
    <path
       style="fill:none;stroke:#e40000;stroke-width:0.26458332px;stroke-linecap:butt;stroke-linejoin:miter;stroke-opacity:1"
       d="m 283.86019,72.104162 38.74254,-7.748508 1.53136,-8.223965"
       id="path973"
       inkscape:connector-curvature="0" />
    <path
       style="fill:none;stroke:#ff0202;stroke-width:0.26458332px;stroke-linecap:butt;stroke-linejoin:miter;stroke-opacity:1"
       d="m 322.60273,64.355654 19.4658,-3.96875 -2.93394,-6.685698"
       id="path975"
       inkscape:connector-curvature="0" />
    <path
       style="fill:none;stroke:#ff0000;stroke-width:0.26458332px;stroke-linecap:butt;stroke-linejoin:miter;stroke-opacity:1"
       d="M 342.06853,60.386904 359.28999,46.655738"
       id="path977"
       inkscape:connector-curvature="0" />
    <path
       style="fill:none;stroke:#ff0404;stroke-width:0.26458332px;stroke-linecap:butt;stroke-linejoin:miter;stroke-opacity:1"
       d="m 342.06853,60.386904 18.70982,2.078868 1.01574,-0.956752"
       id="path979"
       inkscape:connector-curvature="0" />
    <path
       style="fill:none;stroke:#ff0000;stroke-width:0.26458332px;stroke-linecap:butt;stroke-linejoin:miter;stroke-opacity:1"
       d="m 360.77835,62.465772 5.27976,1.61821"
       id="path981"
       inkscape:connector-curvature="0" />
    <path
       style="fill:none;stroke:#000000;stroke-width:2;stroke-linecap:butt;stroke-linejoin:miter;stroke-opacity:1;stroke-miterlimit:4;stroke-dasharray:none;marker-end:url(#Arrow2Lend)"
       d="m 186.17574,66.18863 h 37.04167"
       id="path983"
       inkscape:connector-curvature="0" />
    <path
       style="fill:none;stroke:#000000;stroke-width:5;stroke-linecap:butt;stroke-linejoin:miter;stroke-opacity:1;stroke-miterlimit:4;stroke-dasharray:none"
       d="m 186.17574,66.18863 h 26.83631"
       id="path1305"
       inkscape:connector-curvature="0" />
  </g>
</svg>
